{
  "workouts": [
    {
      "name": "Endurance Workout A",
      "type": "Endurance & Form",
      "id": "A",
      "isActive": true,
      "exercises": [
        {
          "dataId": "jog",
          "name": "Warm-up",
          "exercise": "Jog",
          "wasSuccessful": false,
          "reps": 1,
          "sets": 1,
          "weightPercentage": null,
          "timeInMin": 5,
          "oneRepMax": 0,
          "description": "Jog for 5 min to warm-up. Get your heart rate up.",
          "isFinalSet": false
        },
        {
          "dataId": "stretch-01",
          "name": "Mobility",
          "exercise": "Stretch",
          "wasSuccessful": false,
          "reps": 1,
          "sets": 1,
          "weightPercentage": null,
          "timeInMin": 2,
          "oneRepMax": 0,
          "description": "Stretch for 2 minutes. Focus on neck: Nods, head circles, look left/right.",
          "isFinalSet": false,
          "video": "https://www.youtube.com/embed/Dy28eq2PjcM"
        },
        {
          "dataId": "squat-wu",
          "name": "Squat Warmup",
          "exercise": "Squat",
          "wasSuccessful": false,
          "reps": 5,
          "sets": 0,
          "weightPercentage": 25,
          "timeInMin": 2,
          "oneRepMax": 1,
          "description": "Just warm up your legs. Take it easy.",
          "isFinalSet": false
        },
        {
          "dataId": "squat-wu",
          "name": "Squat Warmup",
          "exercise": "Squat",
          "wasSuccessful": false,
          "reps": 3,
          "sets": 0,
          "weightPercentage": 30,
          "timeInMin": 2,
          "oneRepMax": 1,
          "description": "A little harder, but less reps.",
          "isFinalSet": false
        },
        {
          "dataId": "squat-wu",
          "name": "Squat Warmup",
          "exercise": "Squat",
          "wasSuccessful": false,
          "reps": 2,
          "sets": 0,
          "weightPercentage": 50,
          "timeInMin": 2,
          "oneRepMax": 1,
          "description": "Get ready for the real deal.",
          "isFinalSet": false
        },
        {
          "dataId": "squat-01", "name": "Squat",
          "exercise": "Squat",
          "wasSuccessful": false,
          "reps": 12,
          "sets": 1,
          "weightPercentage": 70,
          "timeInMin": 2,
          "oneRepMax": 1,
          "description": "Our first working set.",
          "isFinalSet": false
        },
        {
          "dataId": "squat-01", "name": "Squat",
          "exercise": "Squat",
          "wasSuccessful": false,
          "reps": 12,
          "sets": 2,
          "weightPercentage": 70,
          "timeInMin": 2,
          "oneRepMax": 1,
          "description": "Second set, you should start to feel it.",
          "isFinalSet": false
        },
        {
          "dataId": "squat-01",
          "name": "Squat",
          "exercise": "Squat",
          "wasSuccessful": false,
          "reps": 12,
          "sets": 3,
          "weightPercentage": 70,
          "timeInMin": 2,
          "oneRepMax": 1,
          "description": "Half way, you got this.",
          "isFinalSet": false
        },
        {
          "dataId": "squat-01",
          "name": "Squat",
          "exercise": "Squat",
          "wasSuccessful": false,
          "reps": 12,
          "sets": 4,
          "weightPercentage": 70,
          "timeInMin": 2,
          "oneRepMax": 1,
          "description": "Nailed it!.",
          "isFinalSet": true
        },
        {
          "dataId": "bench-01",
          "name": "Bench",
          "exercise": "Bench",
          "wasSuccessful": false,
          "reps": 5,
          "sets": 0,
          "weightPercentage": 25,
          "timeInMin": 2,
          "oneRepMax": 1,
          "description": "Just warm up your chest. Take it easy.",
          "isFinalSet": false
        },
        {
          "dataId": "bench-01",
          "name": "Bench",
          "exercise": "Bench",
          "wasSuccessful": false,
          "reps": 3,
          "sets": 0,
          "weightPercentage": 30,
          "timeInMin": 2,
          "oneRepMax": 1,
          "description": "A little harder, but less reps.",
          "isFinalSet": false
        },
        {
          "dataId": "bench-01",
          "name": "Bench",
          "exercise": "Bench",
          "wasSuccessful": false,
          "reps": 2,
          "sets": 0,
          "weightPercentage": 50,
          "timeInMin": 2,
          "oneRepMax": 1,
          "description": "Get ready for the real deal.",
          "isFinalSet": false
        },
        {
          "dataId": "bench-01",
          "name": "Bench",
          "exercise": "Bench",
          "wasSuccessful": false,
          "reps": 12,
          "sets": 1,
          "weightPercentage": 70,
          "timeInMin": 2,
          "oneRepMax": 1,
          "description": "Our first working set.",
          "isFinalSet": false
        },
        {
          "dataId": "bench-01",
          "name": "Bench",
          "exercise": "Bench",
          "wasSuccessful": false,
          "reps": 12,
          "sets": 2,
          "weightPercentage": 70,
          "timeInMin": 2,
          "oneRepMax": 1,
          "description": "Second set, you should start to feel it.",
          "isFinalSet": false
        },
        {
          "dataId": "bench-01",
          "name": "Bench",
          "exercise": "Bench",
          "wasSuccessful": false,
          "reps": 12,
          "sets": 3,
          "weightPercentage": 70,
          "timeInMin": 2,
          "oneRepMax": 1,
          "description": "Half way, you got this.",
          "isFinalSet": false
        },
        {
          "dataId": "bench-01",
          "name": "Bench",
          "exercise": "Bench",
          "wasSuccessful": false,
          "reps": 12,
          "sets": 4,
          "weightPercentage": 70,
          "timeInMin": 2,
          "oneRepMax": 1,
          "description": "Nailed it!.",
          "isFinalSet": true
        },
        {
          "dataId": "deadlift-wu",
          "name": "Deadlift Warmup",
          "exercise": "Deadlift",
          "wasSuccessful": false,
          "reps": 5,
          "sets": 0,
          "weightPercentage": 25,
          "timeInMin": 2,
          "oneRepMax": 1,
          "description": "Focus on form. Take it easy.",
          "isFinalSet": false
        },
        {
          "dataId": "deadlift-wu",
          "name": "Deadlift Warmup",
          "exercise": "Deadlift",
          "wasSuccessful": false,
          "reps": 3,
          "sets": 0,
          "weightPercentage": 30,
          "timeInMin": 2,
          "oneRepMax": 1,
          "description": "A little harder, but less reps.",
          "isFinalSet": false
        },
        {
          "dataId": "deadlift-wu",
          "name": "Deadlift Warmup",
          "exercise": "Deadlift",
          "wasSuccessful": false,
          "reps": 2,
          "sets": 0,
          "weightPercentage": 50,
          "timeInMin": 2,
          "oneRepMax": 1,
          "description": "Get ready for the real deal.",
          "isFinalSet": false
        },
        {
          "dataId": "deadlift-01",
          "name": "Deadlift",
          "exercise": "Deadlift",
          "wasSuccessful": false,
          "reps": 12,
          "sets": 1,
          "weightPercentage": 70,
          "timeInMin": 2,
          "oneRepMax": 1,
          "description": "Nailed it!.",
          "isFinalSet": true
        },
        {
          "dataId": "calf-wu",
          "name": "Calf-Raises Warmup",
          "exercise": "Calf-Raises",
          "wasSuccessful": false,
          "reps": 5,
          "sets": 0,
          "weightPercentage": 25,
          "timeInMin": 2,
          "oneRepMax": 1,
          "description": "Focus on form. Take it easy.",
          "isFinalSet": false
        },
        {
          "dataId": "calf-wu",
          "name": "Calf-Raises Warmup",
          "exercise": "Calf-Raises",
          "wasSuccessful": false,
          "reps": 3,
          "sets": 0,
          "weightPercentage": 30,
          "timeInMin": 2,
          "oneRepMax": 1,
          "description": "A little harder, but less reps.",
          "isFinalSet": false
        },
        {
          "dataId": "calf-01",
          "name": "Calf-Raises",
          "exercise": "Calf-Raises",
          "wasSuccessful": false,
          "reps": 20,
          "sets": 1,
          "weightPercentage": 70,
          "timeInMin": 2,
          "oneRepMax": 1,
          "description": "Nailed it!.",
          "isFinalSet": false
        },
        {
          "dataId": "calf-01",
          "name": "Calf-Raises",
          "exercise": "Calf-Raises",
          "wasSuccessful": false,
          "reps": 20,
          "sets": 2,
          "weightPercentage": 70,
          "timeInMin": 2,
          "oneRepMax": 1,
          "description": "Nailed it!.",
          "isFinalSet": true
        },
        {
          "dataId": "boxing-01",
          "name": "Boxing Bonus",
          "exercise": "Boxing",
          "wasSuccessful": false,
          "reps": 1,
          "sets": 1,
          "weightPercentage": null,
          "timeInMin": 30,
          "oneRepMax": 0,
          "description": "Do 15 min jump rope and 15min heavybag/shadow box.",
          "isFinalSet": false
        }
      ]
    },
    {
      "name": "Endurance Workout B",
      "type": "Run & Fun",
      "id": "B",
      "isActive": null,
      "exercises": [
        {
          "dataId": "stretch-02",
          "name": "Mobility",
          "exercise": "Stretch",
          "wasSuccessful": false,
          "reps": 1,
          "sets": 1,
          "weightPercentage": null,
          "timeInMin": 2,
          "oneRepMax": null,
          "description": "Stretch, focusing on you hamstrings and ankles. Get real loose, because today you're going for a run.",
          "isFinalSet": false
        },
        {
          "dataId": "run-01",
          "name": "Run",
          "exercise": "Long Run",
          "wasSuccessful": false,
          "reps": 1,
          "sets": 1,
          "weightPercentage": null,
          "timeInMin": 30,
          "oneRepMax": null,
          "description": "Take it easy, shoot for 3 mi around 30 min, but do whatever pace FEELS good. Try for a 4/10 effort.",
          "isFinalSet": true
        },
        {
          "dataId": "sports-01",
          "name": "Sports",
          "exercise": "Basketball",
          "wasSuccessful": false,
          "reps": 1,
          "sets": 1,
          "weightPercentage": null,
          "timeInMin": 30,
          "oneRepMax": null,
          "description": "Get out there and play a sport. Basketball, soccer, whatever, just go move around for at least 30 min. Requirement: Have fun!",
          "isFinalSet": true
        }
      ]
    },
    {
      "name": "Endurance Workout C",
      "type": "Easy lifting day",
      "id": "C",
      "isActive": false,
      "exercises": [
        {
          "dataId": "jog",
          "name": "Warm-up",
          "exercise": "Jog",
          "wasSuccessful": false,
          "reps": 1,
          "sets": 1,
          "weightPercentage": null,
          "timeInMin": 3,
          "oneRepMax": 0,
          "description": "Run, fast, sprint for 3 min. Get that blood pumping.",
          "isFinalSet": false
        },
        {
          "dataId": "stretch-03",
          "name": "Mobility",
          "exercise": "Stretch",
          "wasSuccessful": false,
          "reps": 1,
          "sets": 1,
          "weightPercentage": null,
          "timeInMin": 2,
          "oneRepMax": 0,
          "description": "Stretch for 2 min, focus on hips and arms.",
          "isFinalSet": false
        },
        {
          "dataId": "squat-wu",
          "name": "Squat Warmup",
          "exercise": "Squat",
          "wasSuccessful": false,
          "reps": 5,
          "sets": 0,
          "weightPercentage": 25,
          "timeInMin": 2,
          "oneRepMax": 1,
          "description": "Just warm up your legs. Take it easy.",
          "isFinalSet": false
        },
        {
          "dataId": "squat-wu",
          "name": "Squat Warmup",
          "exercise": "Squat",
          "wasSuccessful": false,
          "reps": 3,
          "sets": 0,
          "weightPercentage": 30,
          "timeInMin": 2,
          "oneRepMax": 1,
          "description": "A little harder, but less reps.",
          "isFinalSet": false
        },
        {
          "dataId": "squat-wu",
           "name": "Squat Warmup",
          "exercise": "Squat",
          "wasSuccessful": false,
          "reps": 2,
          "sets": 0,
          "weightPercentage": 50,
          "timeInMin": 2,
          "oneRepMax": 1,
          "description": "Get ready for the real deal.",
          "isFinalSet": false
        },
        {
          "dataId": "squat-01",
          "name": "Squat",
          "exercise": "Squat",
          "wasSuccessful": false,
          "reps": 12,
          "sets": 1,
          "weightPercentage": 60,
          "timeInMin": 2,
          "oneRepMax": 1,
          "description": "Our first working set.",
          "isFinalSet": false
        },
        {
          "dataId": "squat-01",
          "name": "Squat",
          "exercise": "Squat",
          "wasSuccessful": false,
          "reps": 12,
          "sets": 2,
          "weightPercentage": 60,
          "timeInMin": 2,
          "oneRepMax": 1,
          "description": "Second set, you should start to feel it.",
          "isFinalSet": false
        },
        {
          "dataId": "squat-01",
          "name": "Squat",
          "exercise": "Squat",
          "wasSuccessful": false,
          "reps": 12,
          "sets": 3,
          "weightPercentage": 60,
          "timeInMin": 2,
          "oneRepMax": 1,
          "description": "Half way, you got this.",
          "isFinalSet": false
        },
        {
          "dataId": "squat-01",
          "name": "Squat",
          "exercise": "Squat",
          "wasSuccessful": false,
          "reps": 12,
          "sets": 4,
          "weightPercentage": 60,
          "timeInMin": 2,
          "oneRepMax": 1,
          "description": "Nailed it!.",
          "isFinalSet": true
        },
        {
          "dataId": "bench-01",
          "name": "Bench",
          "exercise": "Bench",
          "wasSuccessful": false,
          "reps": 5,
          "sets": 0,
          "weightPercentage": 25,
          "timeInMin": 2,
          "oneRepMax": 1,
          "description": "Just warm up your chest. Take it easy.",
          "isFinalSet": false
        },
        {
          "dataId": "bench-01",
          "name": "Bench",
          "exercise": "Bench",
          "wasSuccessful": false,
          "reps": 3,
          "sets": 0,
          "weightPercentage": 30,
          "timeInMin": 2,
          "oneRepMax": 1,
          "description": "A little harder, but less reps.",
          "isFinalSet": false
        },
        {
          "dataId": "bench-01",
          "name": "Bench",
          "exercise": "Bench",
          "wasSuccessful": false,
          "reps": 2,
          "sets": 0,
          "weightPercentage": 50,
          "timeInMin": 2,
          "oneRepMax": 1,
          "description": "Get ready for the real deal.",
          "isFinalSet": false
        },
        {
          "dataId": "bench-01",
          "name": "Bench",
          "exercise": "Bench",
          "wasSuccessful": false,
          "reps": 12,
          "sets": 1,
          "weightPercentage": 60,
          "timeInMin": 2,
          "oneRepMax": 1,
          "description": "Our first working set.",
          "isFinalSet": false
        },
        {
          "dataId": "bench-01",
          "name": "Bench",
          "exercise": "Bench",
          "wasSuccessful": false,
          "reps": 12,
          "sets": 2,
          "weightPercentage": 60,
          "timeInMin": 2,
          "oneRepMax": 1,
          "description": "Second set, you should start to feel it.",
          "isFinalSet": false
        },
        {
          "dataId": "bench-01",
          "name": "Bench",
          "exercise": "Bench",
          "wasSuccessful": false,
          "reps": 12,
          "sets": 3,
          "weightPercentage": 60,
          "timeInMin": 2,
          "oneRepMax": 1,
          "description": "Half way, you got this.",
          "isFinalSet": false
        },
        {
          "dataId": "bench-01",
          "name": "Bench",
          "exercise": "Bench",
          "wasSuccessful": false,
          "reps": 12,
          "sets": 4,
          "weightPercentage": 60,
          "timeInMin": 2,
          "oneRepMax": 1,
          "description": "Nailed it!.",
          "isFinalSet": true
        },
        {
          "dataId": "gb-wu",
          "name": "Glute-Bridge Warmup",
          "exercise": "Glute-Bridge",
          "wasSuccessful": false,
          "reps": 5,
          "sets": 0,
          "weightPercentage": 25,
          "timeInMin": 2,
          "oneRepMax": 1,
          "description": "Focus on form. Take it easy.",
          "isFinalSet": false
        },
        {
          "dataId": "gb-wu",
          "name": "Glute-Bridge Warmup",
          "exercise": "Glute-Bridge",
          "wasSuccessful": false,
          "reps": 3,
          "sets": 0,
          "weightPercentage": 30,
          "timeInMin": 2,
          "oneRepMax": 1,
          "description": "A little harder, but less reps.",
          "isFinalSet": false
        },
        {
          "dataId": "gb-wu",
          "name": "Glute-Bridge Warmup",
          "exercise": "Glute-Bridge",
          "wasSuccessful": false,
          "reps": 2,
          "sets": 0,
          "weightPercentage": 50,
          "timeInMin": 2,
          "oneRepMax": 1,
          "description": "Get ready for the real deal.",
          "isFinalSet": false
        },
        {
          "dataId": "gb-01",
          "name": "Glute-Bridge",
          "exercise": "Glute-Bridge",
          "wasSuccessful": false,
          "reps": 12,
          "sets": 1,
          "weightPercentage": 60,
          "timeInMin": 2,
          "oneRepMax": 1,
          "description": "First working set.",
          "isFinalSet": false
        },
        {
          "dataId": "gb-01",
          "name": "Glute-Bridge",
          "exercise": "Glute-Bridge",
          "wasSuccessful": false,
          "reps": 12,
          "sets": 1,
          "weightPercentage": 60,
          "timeInMin": 2,
          "oneRepMax": 1,
          "description": "Nailed it!",
          "isFinalSet": true
        },
        {
          "dataId": "curl-wu",
          "name": "Curl Warmup",
          "exercise": "Curl",
          "wasSuccessful": false,
          "reps": 5,
          "sets": 0,
          "weightPercentage": 25,
          "timeInMin": 2,
          "oneRepMax": 1,
          "description": "Focus on form. Take it easy.",
          "isFinalSet": false
        },
        {
          "dataId": "curl-wu",
          "name": "Curl Warmup",
          "exercise": "Curl",
          "wasSuccessful": false,
          "reps": 3,
          "sets": 0,
          "weightPercentage": 30,
          "timeInMin": 2,
          "oneRepMax": 1,
          "description": "A little harder, but less reps.",
          "isFinalSet": false
        },
        {
          "dataId": "curl-01",
          "name": "Curl",
          "exercise": "Curl",
          "wasSuccessful": false,
          "reps": 20,
          "sets": 1,
          "weightPercentage": 70,
          "timeInMin": 2,
          "oneRepMax": 1,
          "description": "Keep your elbows tucked, concentrate.",
          "isFinalSet": false
        },
        {
          "dataId": "curl-01",
          "name": "Curl",
          "exercise": "Curl",
          "wasSuccessful": false,
          "reps": 20,
          "sets": 2,
          "weightPercentage": 70,
          "timeInMin": 2,
          "oneRepMax": 1,
          "description": "Mind muscle connection...reps don't matter if you're not using proper form.",
          "isFinalSet": true
        },
        {
          "dataId": "bike-01",
          "name": "Optional Biking",
          "exercise": "Bike",
          "wasSuccessful": false,
          "reps": 1,
          "sets": 1,
          "weightPercentage": null,
          "timeInMin": 15,
          "oneRepMax": 0,
          "description": "Hop on a (stationary) bike and peddle it out for 15 min, go pretty hard. No bike? No problem. Grab a skateboard, roller blades, or just hit a trail.",
          "isFinalSet": false
        },
        {
          "dataId":  "yoga-01",
          "name": "Yoga",
          "exercise": "Yoga",
          "wasSuccessful": false,
          "reps": 1,
          "sets": 1,
          "weightPercentage": null,
          "timeInMin": 15,
          "oneRepMax": 0,
          "description": "Just relax. Do at least 20 min of Yoga and concentrate on your breathing. Checkout Boho Beautiful  or Yoga with Adrian on YouTube if you need some inspiration.",
          "isFinalSet": false
        }
      ]
    },
    {
      "name": "Endurance Workout D",
      "type": "Recovery Cardio",
      "id": "D",
      "isActive": null,
      "exercises": [
        {
          "dataId": "stretch-01",
          "name": "Mobility",
          "exercise": "Stretch",
          "wasSuccessful": false,
          "reps": 1,
          "sets": 1,
          "weightPercentage": null,
          "timeInMin": 2,
          "oneRepMax": null,
          "description": "Shoulders and neck should get your attention  today. Make yourself feel loose and  calm.",
          "isFinalSet": false
        },
        {
          "dataId": "jog",
          "name": "Run",
          "exercise": "Recovery Run",
          "wasSuccessful": false,
          "reps": 1,
          "sets": 1,
          "weightPercentage": null,
          "timeInMin": 25,
          "oneRepMax": null,
          "description": "Go at your own pace for 25 min. But try to keep that pace the whole time. Start out easier than you think!",
          "isFinalSet": true
        },
        {
          "dataId": "sports-01",
          "name": "Sports",
          "exercise": "Basketball",
          "wasSuccessful": false,
          "reps": 1,
          "sets": 1,
          "weightPercentage": null,
          "timeInMin": 30,
          "oneRepMax": null,
          "description": "Get out there and play a sport. Basketball, soccer, whatever, just go move around for at least 30 min. Requirement: Think about your form and technique...how can you get better?",
          "isFinalSet": true
        }
      ]
    },
    {
      "name": "Endurance Workout E",
      "type": "Heavy Day",
      "id": "E",
      "isActive": null,
      "exercises": [
        {
          "dataId": "stretch-02",
          "name": "Mobility",
          "exercise": "Stretch",
          "wasSuccessful": false,
          "reps": 1,
          "sets": 1,
          "weightPercentage": null,
          "timeInMin": 2,
          "oneRepMax": null,
          "description": "Loosen your chest, back, and hamstrings. Maybe go grab a foam roller.",
          "isFinalSet": false
        },
         {
          "dataId": "squat-wu",
          "name": "Squat Warmup",
          "exercise": "Squat",
          "wasSuccessful": false,
          "reps": 5,
          "sets": 0,
          "weightPercentage": 25,
          "timeInMin": 2,
          "oneRepMax": 1,
          "description": "Just warm up your legs. Take it easy.",
          "isFinalSet": false
        },
        {
          "dataId": "squat-wu",
          "name": "Squat Warmup",
          "exercise": "Squat",
          "wasSuccessful": false,
          "reps": 3,
          "sets": 0,
          "weightPercentage": 30,
          "timeInMin": 2,
          "oneRepMax": 1,
          "description": "A little harder, but less reps.",
          "isFinalSet": false
        },
        {
          "dataId": "squat-wu",
          "name": "Squat Warmup",
          "exercise": "Squat",
          "wasSuccessful": false,
          "reps": 2,
          "sets": 0,
          "weightPercentage": 50,
          "timeInMin": 2,
          "oneRepMax": 1,
          "description": "Get ready for the real deal.",
          "isFinalSet": false
        },
        {
          "dataId": "squat-01",
          "name": "Squat",
          "exercise": "Squat",
          "wasSuccessful": false,
          "reps": 5,
          "sets": 1,
          "weightPercentage": 85,
          "timeInMin": 2,
          "oneRepMax": 1,
          "description": "First time going heavy. Keep your form.",
          "isFinalSet": false
        },
        {
          "dataId": "squat-01",
          "name": "Squat",
          "exercise": "Squat",
          "wasSuccessful": false,
          "reps": 5,
          "sets": 2,
          "weightPercentage": 85,
          "timeInMin": 2,
          "oneRepMax": 1,
          "description": "Last working set. Push it.",
          "isFinalSet": true
        },
        {
          "dataId": "bench-01",
          "name": "Bench",
          "exercise": "Bench",
          "wasSuccessful": false,
          "reps": 5,
          "sets": 0,
          "weightPercentage": 25,
          "timeInMin": 2,
          "oneRepMax": 1,
          "description": "Just warm up your chest. Take it easy.",
          "isFinalSet": false
        },
        {
          "dataId": "bench-01",
          "name": "Bench",
          "exercise": "Bench",
          "wasSuccessful": false,
          "reps": 3,
          "sets": 0,
          "weightPercentage": 30,
          "timeInMin": 2,
          "oneRepMax": 1,
          "description": "A little harder, but less reps.",
          "isFinalSet": false
        },
        {
          "dataId": "bench-01",
          "name": "Bench",
          "exercise": "Bench",
          "wasSuccessful": false,
          "reps": 2,
          "sets": 0,
          "weightPercentage": 50,
          "timeInMin": 2,
          "oneRepMax": 1,
          "description": "Get ready for the real deal.",
          "isFinalSet": false
        },
        {
          "dataId": "bench-01",
          "name": "Bench",
          "exercise": "Bench",
          "wasSuccessful": false,
          "reps": 5,
          "sets": 1,
          "weightPercentage": 85,
          "timeInMin": 2,
          "oneRepMax": 1,
          "description": "Just breathe...",
          "isFinalSet": false
        },
        {
          "dataId": "bench-01",
          "name": "Bench",
          "exercise": "Bench",
          "wasSuccessful": false,
          "reps": 5,
          "sets": 2,
          "weightPercentage": 85,
          "timeInMin": 2,
          "oneRepMax": 1,
          "description": "Focus........",
          "isFinalSet": true
        },
        {

          "dataId": "row-wu",
          "name": "Row Warmup",
          "exercise": "Row",
          "wasSuccessful": false,
          "reps": 5,
          "sets": 0,
          "weightPercentage": 25,
          "timeInMin": 2,
          "oneRepMax": 1,
          "description": "Focus on form. Take it easy.",
          "isFinalSet": false
        },
        {
          "dataId": "row-wu",
          "name": "Row Warmup",
          "exercise": "Row",
          "wasSuccessful": false,
          "reps": 3,
          "sets": 0,
          "weightPercentage": 30,
          "timeInMin": 2,
          "oneRepMax": 1,
          "description": "A little harder, but less reps.",
          "isFinalSet": false
        },
        {
          "dataId": "row-wu",
          "name": "Row Warmup",
          "exercise": "Row",
          "wasSuccessful": false,
          "reps": 2,
          "sets": 0,
          "weightPercentage": 50,
          "timeInMin": 2,
          "oneRepMax": 1,
          "description": "Get ready for the real deal.",
          "isFinalSet": false
        },
        {
          "dataId": "row-01",
          "name": "Row",
          "exercise": "Row",
          "wasSuccessful": false,
          "reps": 5,
          "sets": 1,
          "weightPercentage": 85,
          "timeInMin": 2,
          "oneRepMax": 1,
          "description": "Watch your form, pay attention to your lower-back.",
          "isFinalSet": false
        },
        {
          "dataId": "row-01",
          "name": "Row",
          "exercise": "Row",
          "wasSuccessful": false,
          "reps": 5,
          "sets": 2,
          "weightPercentage": 85,
          "timeInMin": 2,
          "oneRepMax": 1,
          "description": "Don't swing the weight, control it.",
          "isFinalSet": true
        },
        {

          "dataId": "uppercut-wu",
          "name": "Uppercuts or Cable Crossovers Warmup",
          "exercise": "Uppercuts",
          "wasSuccessful": false,
          "reps": 5,
          "sets": 0,
          "weightPercentage": 25,
          "timeInMin": 2,
          "oneRepMax": 1,
          "description": "Focus on form. Take it easy.",
          "isFinalSet": false
        },
        {
          "dataId": "uppercut-wu",
          "name": "Uppercuts or Cable Crossovers Warmup",
          "exercise": "Uppercuts",
          "wasSuccessful": false,
          "reps": 3,
          "sets": 0,
          "weightPercentage": 30,
          "timeInMin": 2,
          "oneRepMax": 1,
          "description": "A little harder, but less reps.",
          "isFinalSet": false
        },
        {
          "dataId": "uppercut-01",
          "name": "Uppercuts or Cable Crossovers",
          "exercise": "Uppercuts",
          "wasSuccessful": false,
          "reps": 20,
          "sets": 1,
          "weightPercentage": 70,
          "timeInMin": 2,
          "oneRepMax": 1,
          "description": "Focus on muscle contraction.",
          "isFinalSet": false
        },
        {
          "dataId": "uppercut-01",
          "name": "Uppercuts or Cable Crossovers",
          "exercise": "Uppercuts",
          "wasSuccessful": false,
          "reps": 20,
          "sets": 2,
          "weightPercentage": 70,
          "timeInMin": 2,
          "oneRepMax": 1,
          "description": "Slow down, don't punch the weight up, pull it.",
          "isFinalSet": true
        },
        {
          "dataId": "bike-02",
          "name": "Biking Bonus",
          "exercise": "Bike",
          "wasSuccessful": false,
          "reps": 1,
          "sets": 1,
          "weightPercentage": null,
          "timeInMin": 30,
          "oneRepMax": 0,
          "description": "Hit the bike again for at least 30 min. No bike? Try some boxing footwork.",
          "isFinalSet": false
        }
      ]
    },
    {
      "name": "Rest Day",
      "type": "Rest Day",
      "id": "R1",
      "isActive": null,
      "exercises": [
        {
          "name": "Whatever",
          "exercise": "Whatever",
          "wasSuccessful": false,
          "reps": 1,
          "sets": 1,
          "weightPercentage": null,
          "timeInMin": 30,
          "oneRepMax": null,
          "description": "Do whatever you want...or do nothing at all. Today's a rest day.",
          "isFinalSet": false
        }
      ]
    },
    {
      "name": "Rest Day",
      "type": "Rest Day",
      "id": "R2",
      "isActive": null,
      "exercises": [
        {
          "name": "Enjoy",
          "exercise": "Whatever",
          "wasSuccessful": false,
          "reps": 1,
          "sets": 1,
          "weightPercentage": null,
          "timeInMin": 30,
          "oneRepMax": null,
          "description": "Get outside, go for a hike. Rollerblade with friends...just enjoy.",
          "isFinalSet": false
        }
      ]
    },
    {
      "name": "Endurance Workout G",
      "type": "Endurance & Form",
      "id": "G",
      "isActive": false,
      "exercises": [
        {
          "dataId": "jog",
          "name": "Warm-up",
          "exercise": "Jog",
          "wasSuccessful": false,
          "reps": 1,
          "sets": 1,
          "weightPercentage": null,
          "timeInMin": 5,
          "oneRepMax": 0,
          "description": "Jog for 5 min to warm-up.",
          "isFinalSet": false
        },
        {
          "dataId": "stretch-03",
          "name": "Mobility",
          "exercise": "Stretch",
          "wasSuccessful": false,
          "reps": 1,
          "sets": 1,
          "weightPercentage": null,
          "timeInMin": 2,
          "oneRepMax": 0,
          "description": "Stretch for 2, focus on back.",
          "isFinalSet": false
        },
        {
          "dataId": "squat-wu",
          "name": "Squat Warmup",
          "exercise": "Squat",
          "wasSuccessful": false,
          "reps": 5,
          "sets": 0,
          "weightPercentage": 25,
          "timeInMin": 2,
          "oneRepMax": 1,
          "description": "Just warm up your legs. Take it easy.",
          "isFinalSet": false
        },
        {
          "dataId": "squat-wu",
          "name": "Squat Warmup",
          "exercise": "Squat",
          "wasSuccessful": false,
          "reps": 3,
          "sets": 0,
          "weightPercentage": 30,
          "timeInMin": 2,
          "oneRepMax": 1,
          "description": "A little harder, but less reps.",
          "isFinalSet": false
        },
        {
          "dataId": "squat-wu",
          "name": "Squat Warmup",
          "exercise": "Squat",
          "wasSuccessful": false,
          "reps": 2,
          "sets": 0,
          "weightPercentage": 50,
          "timeInMin": 2,
          "oneRepMax": 1,
          "description": "Get ready for the real deal.",
          "isFinalSet": false
        },
        {
          "dataId": "squat-01",
          "name": "Squat",
          "exercise": "Squat",
          "wasSuccessful": false,
          "reps": 12,
          "sets": 1,
          "weightPercentage": 70,
          "timeInMin": 2,
          "oneRepMax": 1,
          "description": "Our first working set.",
          "isFinalSet": false
        },
        {
          "dataId": "squat-01",
          "name": "Squat",
          "exercise": "Squat",
          "wasSuccessful": false,
          "reps": 12,
          "sets": 2,
          "weightPercentage": 70,
          "timeInMin": 2,
          "oneRepMax": 1,
          "description": "Second set, you should start to feel it.",
          "isFinalSet": false
        },
        {
          "dataId": "squat-01",
          "name": "Squat",
          "exercise": "Squat",
          "wasSuccessful": false,
          "reps": 12,
          "sets": 3,
          "weightPercentage": 70,
          "timeInMin": 2,
          "oneRepMax": 1,
          "description": "Half way, you got this.",
          "isFinalSet": false
        },
        {
          "dataId": "squat-01",
          "name": "Squat",
          "exercise": "Squat",
          "wasSuccessful": false,
          "reps": 12,
          "sets": 4,
          "weightPercentage": 70,
          "timeInMin": 2,
          "oneRepMax": 1,
          "description": "Nailed it!.",
          "isFinalSet": true
        },
        {
          "dataId": "deadlift-wu",
          "name": "Deadlift Warmup",
          "exercise": "Deadlift",
          "wasSuccessful": false,
          "reps": 5,
          "sets": 0,
          "weightPercentage": 25,
          "timeInMin": 2,
          "oneRepMax": 1,
          "description": "Focus on form. Take it easy.",
          "isFinalSet": false
        },
        {
          "dataId": "deadlift-wu",
          "name": "Deadlift Warmup",
          "exercise": "Deadlift",
          "wasSuccessful": false,
          "reps": 3,
          "sets": 0,
          "weightPercentage": 30,
          "timeInMin": 2,
          "oneRepMax": 1,
          "description": "A little harder, but less reps.",
          "isFinalSet": false
        },
        {
          "dataId": "deadlift-wu",
          "name": "Deadlift Warmup",
          "exercise": "Deadlift",
          "wasSuccessful": false,
          "reps": 2,
          "sets": 0,
          "weightPercentage": 50,
          "timeInMin": 2,
          "oneRepMax": 1,
          "description": "Get ready for the real deal.",
          "isFinalSet": false
        },
        {
          "dataId": "deadlift-01",
          "name": "Deadlift",
          "exercise": "Deadlift",
          "wasSuccessful": false,
          "reps": 12,
          "sets": 1,
          "weightPercentage": 70,
          "timeInMin": 2,
          "oneRepMax": 1,
          "description": "Watch your form, pay attention to your lower-back.",
          "isFinalSet": false
        },
        {
          "dataId": "row-wu",
          "name": "Row Warmup",
          "exercise": "Row",
          "wasSuccessful": false,
          "reps": 5,
          "sets": 0,
          "weightPercentage": 25,
          "timeInMin": 2,
          "oneRepMax": 1,
          "description": "Focus on form. Take it easy.",
          "isFinalSet": false
        },
        {
          "dataId": "row-wu",
          "name": "Row Warmup",
          "exercise": "Row",
          "wasSuccessful": false,
          "reps": 3,
          "sets": 0,
          "weightPercentage": 30,
          "timeInMin": 2,
          "oneRepMax": 1,
          "description": "A little harder, but less reps.",
          "isFinalSet": false
        },
        {
          "dataId": "row-wu",
          "name": "Row Warmup",
          "exercise": "Row",
          "wasSuccessful": false,
          "reps": 2,
          "sets": 0,
          "weightPercentage": 50,
          "timeInMin": 2,
          "oneRepMax": 1,
          "description": "Get ready for the real deal.",
          "isFinalSet": false
        },
        {
          "dataId": "row-01",
          "name": "Row",
          "exercise": "Row",
          "wasSuccessful": false,
          "reps": 12,
          "sets": 1,
          "weightPercentage": 70,
          "timeInMin": 2,
          "oneRepMax": 1,
          "description": "Nailed it!.",
          "isFinalSet": false
        },
        {
          "dataId": "row-01",
          "name": "Row",
          "exercise": "Row",
          "wasSuccessful": false,
          "reps": 12,
          "sets": 2,
          "weightPercentage": 70,
          "timeInMin": 2,
          "oneRepMax": 1,
          "description": "Nailed it!.",
          "isFinalSet": false
        },
        {
          "dataId": "row-01",
          "name": "Row",
          "exercise": "Row",
          "wasSuccessful": false,
          "reps": 12,
          "sets": 1,
          "weightPercentage": 70,
          "timeInMin": 2,
          "oneRepMax": 1,
          "description": "Nailed it!.",
          "isFinalSet": false
        },
        {
          "dataId": "row-01",
          "name": "Row",
          "exercise": "Row",
          "wasSuccessful": false,
          "reps": 12,
          "sets": 1,
          "weightPercentage": 70,
          "timeInMin": 2,
          "oneRepMax": 1,
          "description": "Nailed it!.",
          "isFinalSet": true
        },
        {
          "dataId": "uppercut-wu",
          "name": "Uppercuts or Cable Crossovers Warmup",
          "exercise": "Uppercuts",
          "wasSuccessful": false,
          "reps": 5,
          "sets": 0,
          "weightPercentage": 25,
          "timeInMin": 2,
          "oneRepMax": 1,
          "description": "Focus on form. Take it easy.",
          "isFinalSet": false
        },
        {
          "dataId": "uppercut-wu",
          "name": "Uppercuts or Cable Crossovers Warmup",
          "exercise": "Uppercuts",
          "wasSuccessful": false,
          "reps": 3,
          "sets": 0,
          "weightPercentage": 30,
          "timeInMin": 2,
          "oneRepMax": 1,
          "description": "A little harder, but less reps.",
          "isFinalSet": false
        },
        {
          "dataId": "uppercut-01",
          "name": "Uppercuts or Cable Crossovers",
          "exercise": "Uppercuts",
          "wasSuccessful": false,
          "reps": 20,
          "sets": 1,
          "weightPercentage": 70,
          "timeInMin": 2,
          "oneRepMax": 1,
          "description": "Nailed it!.",
          "isFinalSet": false
        },
        {
          "dataId": "uppercut-01",
          "name": "Uppercuts or Cable Crossovers",
          "exercise": "Uppercuts",
          "wasSuccessful": false,
          "reps": 20,
          "sets": 2,
          "weightPercentage": 70,
          "timeInMin": 2,
          "oneRepMax": 1,
          "description": "Nailed it!.",
          "isFinalSet": true
        },
        {
          "dataId": "boxing-01",
          "name": "Boxing Bonus",
          "exercise": "Boxing",
          "wasSuccessful": false,
          "reps": 1,
          "sets": 1,
          "weightPercentage": null,
          "timeInMin": 30,
          "oneRepMax": 0,
          "description": "Do 15 min jump rope and 15min heavybag/shadow box.",
          "isFinalSet": false
        }
      ]
    },
    {
      "name": "Endurance Workout H",
      "type": "Run & Fun",
      "id": "H",
      "isActive": null,
      "exercises": [
        {
          "dataId": "stretch-01",
          "name": "Mobility",
          "exercise": "Stretch",
          "wasSuccessful": false,
          "reps": 1,
          "sets": 1,
          "weightPercentage": null,
          "timeInMin": 2,
          "oneRepMax": null,
          "description": "Stretch, focusing on you hamstrings and ankles. Get real loose, because today you're going for a run.",
          "isFinalSet": false
        },
        {
          "dataId": "jog",
          "name": "Run",
          "exercise": "Long Run",
          "wasSuccessful": false,
          "reps": 1,
          "sets": 1,
          "weightPercentage": null,
          "timeInMin": 30,
          "oneRepMax": null,
          "description": "Take it easy, shoot for 3 mi around 30 min, but do whatever pace FEELS good. Try for a 4/10 effort.",
          "isFinalSet": true
        },
        {
          "dataId": "sports-01",
          "name": "Sports",
          "exercise": "Basketball",
          "wasSuccessful": false,
          "reps": 1,
          "sets": 1,
          "weightPercentage": null,
          "timeInMin": 30,
          "oneRepMax": null,
          "description": "Get out there and play a sport. Basketball, soccer, whatever, just go move around for at least 30 min. Requirement: Have fun!",
          "isFinalSet": true
        }
      ]
    },
    {
      "name": "Endurance Workout I",
      "type": "Easy lifting day",
      "id": "I",
      "isActive": false,
      "exercises": [
        {
          "dataId": "jog",
          "name": "Warm-up",
          "exercise": "Sprint",
          "wasSuccessful": false,
          "reps": 1,
          "sets": 1,
          "weightPercentage": null,
          "timeInMin": 3,
          "oneRepMax": 0,
          "description": "Run, fast, sprint for 3 min. Get that blood pumping.",
          "isFinalSet": false
        },
        {
          "dataId": "stretch-02",
          "name": "Mobility",
          "exercise": "Stretch",
          "wasSuccessful": false,
          "reps": 1,
          "sets": 1,
          "weightPercentage": null,
          "timeInMin": 2,
          "oneRepMax": 0,
          "description": "Stretch for 2 min, focus on hips and arms.",
          "isFinalSet": false
        },
        {
          "dataId": "squat-wu",
          "name": "Squat Warmup",
          "exercise": "Squat",
          "wasSuccessful": false,
          "reps": 5,
          "sets": 0,
          "weightPercentage": 25,
          "timeInMin": 2,
          "oneRepMax": 1,
          "description": "Just warm up your legs. Take it easy.",
          "isFinalSet": false
        },
        {
          "dataId": "squat-wu",
          "name": "Squat Warmup",
          "exercise": "Squat",
          "wasSuccessful": false,
          "reps": 3,
          "sets": 0,
          "weightPercentage": 30,
          "timeInMin": 2,
          "oneRepMax": 1,
          "description": "A little harder, but less reps.",
          "isFinalSet": false
        },
        {
          "dataId": "squat-wu",
          "name": "Squat Warmup",
          "exercise": "Squat",
          "wasSuccessful": false,
          "reps": 2,
          "sets": 0,
          "weightPercentage": 50,
          "timeInMin": 2,
          "oneRepMax": 1,
          "description": "Get ready for the real deal.",
          "isFinalSet": false
        },
        {
          "dataId": "squat-01",
          "name": "Squat",
          "exercise": "Squat",
          "wasSuccessful": false,
          "reps": 12,
          "sets": 1,
          "weightPercentage": 60,
          "timeInMin": 2,
          "oneRepMax": 1,
          "description": "Our first working set.",
          "isFinalSet": false
        },
        {
          "dataId": "squat-01",
          "name": "Squat",
          "exercise": "Squat",
          "wasSuccessful": false,
          "reps": 12,
          "sets": 2,
          "weightPercentage": 60,
          "timeInMin": 2,
          "oneRepMax": 1,
          "description": "Second set, you should start to feel it.",
          "isFinalSet": false
        },
        {
          "dataId": "squat-01",
          "name": "Squat",
          "exercise": "Squat",
          "wasSuccessful": false,
          "reps": 12,
          "sets": 3,
          "weightPercentage": 60,
          "timeInMin": 2,
          "oneRepMax": 1,
          "description": "Half way, you got this.",
          "isFinalSet": false
        },
        {
          "dataId": "squat-01",
          "name": "Squat",
          "exercise": "Squat",
          "wasSuccessful": false,
          "reps": 12,
          "sets": 4,
          "weightPercentage": 60,
          "timeInMin": 2,
          "oneRepMax": 1,
          "description": "Nailed it!.",
          "isFinalSet": true
        },
        {
          "dataId": "bench-01",
          "name": "Bench",
          "exercise": "Bench",
          "wasSuccessful": false,
          "reps": 5,
          "sets": 0,
          "weightPercentage": 25,
          "timeInMin": 2,
          "oneRepMax": 1,
          "description": "Just warm up your chest. Take it easy.",
          "isFinalSet": false
        },
        {
          "dataId": "bench-01",
          "name": "Bench",
          "exercise": "Bench",
          "wasSuccessful": false,
          "reps": 3,
          "sets": 0,
          "weightPercentage": 30,
          "timeInMin": 2,
          "oneRepMax": 1,
          "description": "A little harder, but less reps.",
          "isFinalSet": false
        },
        {
          "dataId": "bench-01",
          "name": "Bench",
          "exercise": "Bench",
          "wasSuccessful": false,
          "reps": 2,
          "sets": 0,
          "weightPercentage": 50,
          "timeInMin": 2,
          "oneRepMax": 1,
          "description": "Get ready for the real deal.",
          "isFinalSet": false
        },
        {
          "dataId": "bench-01",
          "name": "Bench",
          "exercise": "Bench",
          "wasSuccessful": false,
          "reps": 12,
          "sets": 1,
          "weightPercentage": 60,
          "timeInMin": 2,
          "oneRepMax": 1,
          "description": "Our first working set.",
          "isFinalSet": false
        },
        {
          "dataId": "bench-01",
          "name": "Bench",
          "exercise": "Bench",
          "wasSuccessful": false,
          "reps": 12,
          "sets": 2,
          "weightPercentage": 60,
          "timeInMin": 2,
          "oneRepMax": 1,
          "description": "Second set, you should start to feel it.",
          "isFinalSet": false
        },
        {
          "dataId": "bench-01",
          "name": "Bench",
          "exercise": "Bench",
          "wasSuccessful": false,
          "reps": 12,
          "sets": 3,
          "weightPercentage": 60,
          "timeInMin": 2,
          "oneRepMax": 1,
          "description": "Half way, you got this.",
          "isFinalSet": false
        },
        {
          "dataId": "bench-01",
          "name": "Bench",
          "exercise": "Bench",
          "wasSuccessful": false,
          "reps": 12,
          "sets": 4,
          "weightPercentage": 60,
          "timeInMin": 2,
          "oneRepMax": 1,
          "description": "Nailed it!.",
          "isFinalSet": true
        },
        {
          "dataId": "calf-wu",
          "name": "Calf-Raises Warmup",
          "exercise": "Calf-Raises",
          "wasSuccessful": false,
          "reps": 5,
          "sets": 0,
          "weightPercentage": 25,
          "timeInMin": 2,
          "oneRepMax": 1,
          "description": "Focus on form. Take it easy.",
          "isFinalSet": false
        },
        {
          "dataId": "calf-wu",
          "name": "Calf-Raises Warmup",
          "exercise": "Calf-Raises",
          "wasSuccessful": false,
          "reps": 3,
          "sets": 0,
          "weightPercentage": 30,
          "timeInMin": 2,
          "oneRepMax": 1,
          "description": "A little harder, but less reps.",
          "isFinalSet": false
        },
        {
          "dataId": "calf-wu",
          "name": "Calf-Raises Warmup",
          "exercise": "Calf-Raises",
          "wasSuccessful": false,
          "reps": 2,
          "sets": 0,
          "weightPercentage": 50,
          "timeInMin": 2,
          "oneRepMax": 1,
          "description": "Get ready for the real deal.",
          "isFinalSet": false
        },
        {
          "dataId": "calf-01",
          "name": "Calf-Raises",
          "exercise": "Calf-Raises",
          "wasSuccessful": false,
          "reps": 12,
          "sets": 1,
          "weightPercentage": 60,
          "timeInMin": 2,
          "oneRepMax": 1,
          "description": "First working set.",
          "isFinalSet": false
        },
        {
          "dataId": "calf-01",
          "name": "Calf-Raises",
          "exercise": "Calf-Raises",
          "wasSuccessful": false,
          "reps": 12,
          "sets": 1,
          "weightPercentage": 60,
          "timeInMin": 2,
          "oneRepMax": 1,
          "description": "Nailed it!",
          "isFinalSet": true
        },
        {
          "dataId": "curl-wu",
          "name": "Curl Warmup",
          "exercise": "Curl",
          "wasSuccessful": false,
          "reps": 5,
          "sets": 0,
          "weightPercentage": 25,
          "timeInMin": 2,
          "oneRepMax": 1,
          "description": "Focus on form. Take it easy.",
          "isFinalSet": false
        },
        {
          "dataId": "curl-wu",
          "name": "Curl Warmup",
          "exercise": "Curl",
          "wasSuccessful": false,
          "reps": 3,
          "sets": 0,
          "weightPercentage": 30,
          "timeInMin": 2,
          "oneRepMax": 1,
          "description": "A little harder, but less reps.",
          "isFinalSet": false
        },
        {
          "dataId": "curl-01",
          "name": "Curl",
          "exercise": "Curl",
          "wasSuccessful": false,
          "reps": 20,
          "sets": 1,
          "weightPercentage": 70,
          "timeInMin": 2,
          "oneRepMax": 1,
          "description": "Keep your elbows tucked, concentrate.",
          "isFinalSet": false
        },
        {
          "dataId": "curl-01",
          "name": "Curl",
          "exercise": "Curl",
          "wasSuccessful": false,
          "reps": 20,
          "sets": 2,
          "weightPercentage": 70,
          "timeInMin": 2,
          "oneRepMax": 1,
          "description": "Mind muscle connection...reps don't matter if you're not using proper form.",
          "isFinalSet": true
        },
        {
          "dataId": "bike-03",
          "name": "Optional Biking",
          "exercise": "Bike",
          "wasSuccessful": false,
          "reps": 1,
          "sets": 1,
          "weightPercentage": null,
          "timeInMin": 15,
          "oneRepMax": 0,
          "description": "Hop on a (stationary) bike and peddle it out for 15 min, go pretty hard. No bike? No problem. Grab a skateboard, roller blades, or just hit a trail.",
          "isFinalSet": false
        },
        {
          "dataId":  "yoga-02",
          "name": "Yoga",
          "exercise": "Yoga",
          "wasSuccessful": false,
          "reps": 1,
          "sets": 1,
          "weightPercentage": null,
          "timeInMin": 15,
          "oneRepMax": 0,
          "description": "Just relax. Do at least 20 min of Yoga and concentrate on your breathing. Checkout Boho Beautiful  or Yoga with Adrian on YouTube if you need some inspiration.",
          "isFinalSet": false
        }
      ]
    },
    {
      "name": "Endurance Workout J",
      "type": "Recovery Cardio",
      "id": "J",
      "isActive": null,
      "exercises": [
        {
          "dataId": "stretch-03",
          "name": "Mobility",
          "exercise": "Stretch",
          "wasSuccessful": false,
          "reps": 1,
          "sets": 1,
          "weightPercentage": null,
          "timeInMin": 2,
          "oneRepMax": null,
          "description": "Shoulders and neck should get your attention  today. Make yourself feel loose and  calm.",
          "isFinalSet": false
        },
        {
          "name": "Run",
          "exercise": "Recovery Run",
          "wasSuccessful": false,
          "reps": 1,
          "sets": 1,
          "weightPercentage": null,
          "timeInMin": 25,
          "oneRepMax": null,
          "description": "Go at your own pace for 25 min. But try to keep that pace the whole time. Start out easier than you think!",
          "isFinalSet": true
        },
        {
          "name": "Sports",
          "exercise": "Basketball",
          "wasSuccessful": false,
          "reps": 1,
          "sets": 1,
          "weightPercentage": null,
          "timeInMin": 30,
          "oneRepMax": null,
          "description": "Get out there and play a sport. Basketball, soccer, whatever, just go move around for at least 30 min. Requirement: Think about your form and technique...how can you get better?",
          "isFinalSet": true
        }
      ]
    },
    {
      "name": "Endurance Workout K",
      "type": "Heavy Day",
      "id": "K",
      "isActive": null,
      "exercises": [
        {
          "dataId": "stretch-01",
          "name": "Mobility",
          "exercise": "Stretch",
          "wasSuccessful": false,
          "reps": 1,
          "sets": 1,
          "weightPercentage": null,
          "timeInMin": 2,
          "oneRepMax": null,
          "description": "Loosen your chest, back, and hamstrings. Maybe go grab a foam roller.",
          "isFinalSet": false
        },
         {
          "dataId": "squat-wu",
          "name": "Squat Warmup",
          "exercise": "Squat",
          "wasSuccessful": false,
          "reps": 5,
          "sets": 0,
          "weightPercentage": 25,
          "timeInMin": 2,
          "oneRepMax": 1,
          "description": "Just warm up your legs. Take it easy.",
          "isFinalSet": false
        },
        {
          "dataId": "squat-wu",
          "name": "Squat Warmup",
          "exercise": "Squat",
          "wasSuccessful": false,
          "reps": 3,
          "sets": 0,
          "weightPercentage": 30,
          "timeInMin": 2,
          "oneRepMax": 1,
          "description": "A little harder, but less reps.",
          "isFinalSet": false
        },
        {
          "dataId": "squat-wu",
          "name": "Squat Warmup",
          "exercise": "Squat",
          "wasSuccessful": false,
          "reps": 2,
          "sets": 0,
          "weightPercentage": 50,
          "timeInMin": 2,
          "oneRepMax": 1,
          "description": "Get ready for the real deal.",
          "isFinalSet": false
        },
        {
          "dataId": "squat-01",
          "name": "Squat",
          "exercise": "Squat",
          "wasSuccessful": false,
          "reps": 5,
          "sets": 1,
          "weightPercentage": 85,
          "timeInMin": 2,
          "oneRepMax": 1,
          "description": "First time going heavy. Keep your form.",
          "isFinalSet": false
        },
        {
          "dataId": "squat-01",
          "name": "Squat",
          "exercise": "Squat",
          "wasSuccessful": false,
          "reps": 5,
          "sets": 2,
          "weightPercentage": 85,
          "timeInMin": 2,
          "oneRepMax": 1,
          "description": "Last working set. Push it.",
          "isFinalSet": true
        },
        {
          "dataId": "gb-wu",
          "name": "Glute-Bridge Warmup",
          "exercise": "Glute-Bridge",
          "wasSuccessful": false,
          "reps": 5,
          "sets": 0,
          "weightPercentage": 25,
          "timeInMin": 2,
          "oneRepMax": 1,
          "description": "Just warm up your chest. Take it easy.",
          "isFinalSet": false
        },
        {
          "dataId": "gb-wu",
          "name": "Glute-Bridge Warmup",
          "exercise": "Glute-Bridge",
          "wasSuccessful": false,
          "reps": 3,
          "sets": 0,
          "weightPercentage": 30,
          "timeInMin": 2,
          "oneRepMax": 1,
          "description": "A little harder, but less reps.",
          "isFinalSet": false
        },
        {
          "dataId": "gb-wu",
          "name": "Glute-Bridge Warmup",
          "exercise": "Glute-Bridge",
          "wasSuccessful": false,
          "reps": 2,
          "sets": 0,
          "weightPercentage": 50,
          "timeInMin": 2,
          "oneRepMax": 1,
          "description": "Get ready for the real deal.",
          "isFinalSet": false
        },
        {
          "dataId": "gb-01",
          "name": "Glute-Bridge",
          "exercise": "Glute-Bridge",
          "wasSuccessful": false,
          "reps": 5,
          "sets": 1,
          "weightPercentage": 85,
          "timeInMin": 2,
          "oneRepMax": 1,
          "description": "Just breathe...",
          "isFinalSet": false
        },
        {
          "dataId": "gb-01",
          "name": "Glute-Bridge",
          "exercise": "Glute-Bridge",
          "wasSuccessful": false,
          "reps": 5,
          "sets": 2,
          "weightPercentage": 85,
          "timeInMin": 2,
          "oneRepMax": 1,
          "description": "Focus........",
          "isFinalSet": true
        },
        {
          "dataId": "deadlift-wu",
          "name": "Deadlift Warmup",
          "exercise": "Deadlift",
          "wasSuccessful": false,
          "reps": 5,
          "sets": 0,
          "weightPercentage": 25,
          "timeInMin": 2,
          "oneRepMax": 1,
          "description": "Focus on form. Take it easy.",
          "isFinalSet": false
        },
        {
          "dataId": "deadlift-wu",
          "name": "Deadlift Warmup",
          "exercise": "Deadlift",
          "wasSuccessful": false,
          "reps": 3,
          "sets": 0,
          "weightPercentage": 30,
          "timeInMin": 2,
          "oneRepMax": 1,
          "description": "A little harder, but less reps.",
          "isFinalSet": false
        },
        {
          "dataId": "deadlift-wu",
          "name": "Deadlift Warmup",
          "exercise": "Deadlift",
          "wasSuccessful": false,
          "reps": 2,
          "sets": 0,
          "weightPercentage": 50,
          "timeInMin": 2,
          "oneRepMax": 1,
          "description": "Get ready for the real deal.",
          "isFinalSet": false
        },
        {
          "dataId": "deadlift-01",
          "name": "Deadlift",
          "exercise": "Deadlift",
          "wasSuccessful": false,
          "reps": 5,
          "sets": 1,
          "weightPercentage": 85,
          "timeInMin": 2,
          "oneRepMax": 1,
          "description": "Watch your form, pay attention to your lower-back.",
          "isFinalSet": false
        },
        {
          "dataId": "deadlift-01",
          "name": "Deadlift",
          "exercise": "Deadlift",
          "wasSuccessful": false,
          "reps": 5,
          "sets": 2,
          "weightPercentage": 85,
          "timeInMin": 2,
          "oneRepMax": 1,
          "description": "Don't swing the weight, control it.",
          "isFinalSet": true
        },
        {
          "dataId": "row-wu",
          "name": "Row Warmup",
          "exercise": "Row",
          "wasSuccessful": false,
          "reps": 5,
          "sets": 0,
          "weightPercentage": 25,
          "timeInMin": 2,
          "oneRepMax": 1,
          "description": "Focus on form. Take it easy.",
          "isFinalSet": false
        },
        {
          "dataId": "row-wu",
          "name": "Row Warmup",
          "exercise": "Row",
          "wasSuccessful": false,
          "reps": 3,
          "sets": 0,
          "weightPercentage": 30,
          "timeInMin": 2,
          "oneRepMax": 1,
          "description": "A little harder, but less reps.",
          "isFinalSet": false
        },
        {
          "dataId": "row-01",
          "name": "Row",
          "exercise": "Row",
          "wasSuccessful": false,
          "reps": 20,
          "sets": 1,
          "weightPercentage": 70,
          "timeInMin": 2,
          "oneRepMax": 1,
          "description": "Focus on muscle contraction.",
          "isFinalSet": false
        },
        {
          "dataId": "row-01",
          "name": "Row",
          "exercise": "Row",
          "wasSuccessful": false,
          "reps": 20,
          "sets": 2,
          "weightPercentage": 70,
          "timeInMin": 2,
          "oneRepMax": 1,
          "description": "Slow down, don't swing the weight up, pull it.",
          "isFinalSet": true
        },
        {
          "dataId": "bike-01",
          "name": "Biking Bonus",
          "exercise": "Bike",
          "wasSuccessful": false,
          "reps": 1,
          "sets": 1,
          "weightPercentage": null,
          "timeInMin": 30,
          "oneRepMax": 0,
          "description": "Hit the bike again for at least 30 min. No bike? Try some boxing footwork.",
          "isFinalSet": false
        }
      ]
    },
    {
      "name": "Rest Day",
      "type": "Rest Day",
      "id": "R3",
      "isActive": null,
      "exercises": [
        {
          "name": "Whatever",
          "exercise": "Whatever",
          "wasSuccessful": false,
          "reps": 1,
          "sets": 1,
          "weightPercentage": null,
          "timeInMin": 30,
          "oneRepMax": null,
          "description": "Do whatever you want...or do nothing at all. Today's a rest day.",
          "isFinalSet": false
        }
      ]
    },
    {
      "name": "Rest Day",
      "type": "Rest Day",
      "id": "R4",
      "isActive": null,
      "exercises": [
        {
          "name": "Enjoy",
          "exercise": "Whatever",
          "wasSuccessful": false,
          "reps": 1,
          "sets": 1,
          "weightPercentage": null,
          "timeInMin": 30,
          "oneRepMax": null,
          "description": "Get outside, go for a hike. Rollerblade with friends...just enjoy.",
          "isFinalSet": false
        }
      ]
    },
    {
      "name": "Endurance Workout L",
      "type": "Endurance & Form",
      "id": "L",
      "isActive": false,
      "exercises": [
        {
          "dataId": "jog",
          "name": "Warm-up",
          "exercise": "Jog",
          "wasSuccessful": false,
          "reps": 1,
          "sets": 1,
          "weightPercentage": null,
          "timeInMin": 5,
          "oneRepMax": 0,
          "description": "Jog for 5 min to warm-up.",
          "isFinalSet": false
        },
        {
          "dataId": "stretch-02",
          "name": "Mobility",
          "exercise": "Stretch",
          "wasSuccessful": false,
          "reps": 1,
          "sets": 1,
          "weightPercentage": null,
          "timeInMin": 2,
          "oneRepMax": 0,
          "description": "Stretch for 2, focus on back.",
          "isFinalSet": false
        },
        {
          "dataId": "squat-wu",
          "name": "Squat Warmup",
          "exercise": "Squat",
          "wasSuccessful": false,
          "reps": 5,
          "sets": 0,
          "weightPercentage": 25,
          "timeInMin": 2,
          "oneRepMax": 1,
          "description": "Just warm up your legs. Take it easy.",
          "isFinalSet": false
        },
        {
          "dataId": "squat-wu",
          "name": "Squat Warmup",
          "exercise": "Squat",
          "wasSuccessful": false,
          "reps": 3,
          "sets": 0,
          "weightPercentage": 30,
          "timeInMin": 2,
          "oneRepMax": 1,
          "description": "A little harder, but less reps.",
          "isFinalSet": false
        },
        {
          "dataId": "squat-wu",
          "name": "Squat Warmup",
          "exercise": "Squat",
          "wasSuccessful": false,
          "reps": 2,
          "sets": 0,
          "weightPercentage": 50,
          "timeInMin": 2,
          "oneRepMax": 1,
          "description": "Get ready for the real deal.",
          "isFinalSet": false
        },
        {
          "dataId": "squat-01",
          "name": "Squat",
          "exercise": "Squat",
          "wasSuccessful": false,
          "reps": 12,
          "sets": 1,
          "weightPercentage": 70,
          "timeInMin": 2,
          "oneRepMax": 1,
          "description": "Our first working set.",
          "isFinalSet": false
        },
        {
          "dataId": "squat-01",
          "name": "Squat",
          "exercise": "Squat",
          "wasSuccessful": false,
          "reps": 12,
          "sets": 2,
          "weightPercentage": 70,
          "timeInMin": 2,
          "oneRepMax": 1,
          "description": "Second set, you should start to feel it.",
          "isFinalSet": false
        },
        {
          "dataId": "squat-01",
          "name": "Squat",
          "exercise": "Squat",
          "wasSuccessful": false,
          "reps": 12,
          "sets": 3,
          "weightPercentage": 70,
          "timeInMin": 2,
          "oneRepMax": 1,
          "description": "Half way, you got this.",
          "isFinalSet": false
        },
        {
          "dataId": "squat-01",
          "name": "Squat",
          "exercise": "Squat",
          "wasSuccessful": false,
          "reps": 12,
          "sets": 4,
          "weightPercentage": 70,
          "timeInMin": 2,
          "oneRepMax": 1,
          "description": "Nailed it!.",
          "isFinalSet": true
        },
        {
          "dataId": "bench-01",
          "name": "Bench",
          "exercise": "Bench",
          "wasSuccessful": false,
          "reps": 5,
          "sets": 0,
          "weightPercentage": 25,
          "timeInMin": 2,
          "oneRepMax": 1,
          "description": "Focus on form. Take it easy.",
          "isFinalSet": false
        },
        {
          "dataId": "bench-01",
          "name": "Bench",
          "exercise": "Bench",
          "wasSuccessful": false,
          "reps": 3,
          "sets": 0,
          "weightPercentage": 30,
          "timeInMin": 2,
          "oneRepMax": 1,
          "description": "A little harder, but less reps.",
          "isFinalSet": false
        },
        {
          "dataId": "bench-01",
          "name": "Bench",
          "exercise": "Bench",
          "wasSuccessful": false,
          "reps": 2,
          "sets": 0,
          "weightPercentage": 50,
          "timeInMin": 2,
          "oneRepMax": 1,
          "description": "Get ready for the real deal.",
          "isFinalSet": false
        },
        {
          "dataId": "bench-01",
          "name": "Bench",
          "exercise": "Bench",
          "wasSuccessful": false,
          "reps": 12,
          "sets": 1,
          "weightPercentage": 70,
          "timeInMin": 2,
          "oneRepMax": 1,
          "description": "Our first working set.",
          "isFinalSet": false
        },
        {
          "dataId": "bench-01",
          "name": "Bench",
          "exercise": "Bench",
          "wasSuccessful": false,
          "reps": 12,
          "sets": 2,
          "weightPercentage": 70,
          "timeInMin": 2,
          "oneRepMax": 1,
          "description": "Second set, you should start to feel it.",
          "isFinalSet": false
        },
        {
          "dataId": "bench-01",
          "name": "Bench",
          "exercise": "Bench",
          "wasSuccessful": false,
          "reps": 12,
          "sets": 3,
          "weightPercentage": 70,
          "timeInMin": 2,
          "oneRepMax": 1,
          "description": "Half way, you got this.",
          "isFinalSet": false
        },
        {
          "dataId": "bench-01",
          "name": "Bench",
          "exercise": "Bench",
          "wasSuccessful": false,
          "reps": 12,
          "sets": 4,
          "weightPercentage": 70,
          "timeInMin": 2,
          "oneRepMax": 1,
          "description": "Nailed it!.",
          "isFinalSet": true
        },
       {
          "dataId": "deadlift-wu",
          "name": "Deadlift Warmup",
          "exercise": "Deadlift",
          "wasSuccessful": false,
          "reps": 5,
          "sets": 0,
          "weightPercentage": 25,
          "timeInMin": 2,
          "oneRepMax": 1,
          "description": "Focus on form. Take it easy.",
          "isFinalSet": false
        },
        {
          "dataId": "deadlift-wu",
          "name": "Deadlift Warmup",
          "exercise": "Deadlift",
          "wasSuccessful": false,
          "reps": 3,
          "sets": 0,
          "weightPercentage": 30,
          "timeInMin": 2,
          "oneRepMax": 1,
          "description": "A little harder, but less reps.",
          "isFinalSet": false
        },
        {
          "dataId": "deadlift-wu",
          "name": "Deadlift Warmup",
          "exercise": "Deadlift",
          "wasSuccessful": false,
          "reps": 2,
          "sets": 0,
          "weightPercentage": 50,
          "timeInMin": 2,
          "oneRepMax": 1,
          "description": "Get ready for the real deal.",
          "isFinalSet": false
        },
        {
          "dataId": "deadlift-01",
          "name": "Deadlift",
          "exercise": "Deadlift",
          "wasSuccessful": false,
          "reps": 12,
          "sets": 1,
          "weightPercentage": 70,
          "timeInMin": 2,
          "oneRepMax": 1,
          "description": "Nailed it!.",
          "isFinalSet": true
        },
        {
          "dataId": "row-wu",
          "name": "Row Warmup",
          "exercise": "Row",
          "wasSuccessful": false,
          "reps": 5,
          "sets": 0,
          "weightPercentage": 25,
          "timeInMin": 2,
          "oneRepMax": 1,
          "description": "Focus on form. Take it easy.",
          "isFinalSet": false
        },
        {
          "dataId": "row-wu",
          "name": "Row Warmup",
          "exercise": "Row",
          "wasSuccessful": false,
          "reps": 3,
          "sets": 0,
          "weightPercentage": 30,
          "timeInMin": 2,
          "oneRepMax": 1,
          "description": "A little harder, but less reps.",
          "isFinalSet": false
        },
        {
          "dataId": "row-wu",
          "name": "Row Warmup",
          "exercise": "Row",
          "wasSuccessful": false,
          "reps": 2,
          "sets": 0,
          "weightPercentage": 50,
          "timeInMin": 2,
          "oneRepMax": 1,
          "description": "Get ready for the real deal.",
          "isFinalSet": false
        },
        {
          "dataId": "row-01",
          "name": "Row",
          "exercise": "Row",
          "wasSuccessful": false,
          "reps": 12,
          "sets": 1,
          "weightPercentage": 70,
          "timeInMin": 2,
          "oneRepMax": 1,
          "description": "Our first working set.",
          "isFinalSet": false
        },
        {
          "dataId": "row-01",
          "name": "Row",
          "exercise": "Row",
          "wasSuccessful": false,
          "reps": 12,
          "sets": 2,
          "weightPercentage": 70,
          "timeInMin": 2,
          "oneRepMax": 1,
          "description": "Second set, you should start to feel it.",
          "isFinalSet": false
        },
        {
          "dataId": "row-01",
          "name": "Row",
          "exercise": "Row",
          "wasSuccessful": false,
          "reps": 12,
          "sets": 3,
          "weightPercentage": 70,
          "timeInMin": 2,
          "oneRepMax": 1,
          "description": "Half way, you got this.",
          "isFinalSet": false
        },
        {
          "dataId": "row-01",
          "name": "Row",
          "exercise": "Row",
          "wasSuccessful": false,
          "reps": 12,
          "sets": 4,
          "weightPercentage": 70,
          "timeInMin": 2,
          "oneRepMax": 1,
          "description": "Nailed it!.",
          "isFinalSet": true
        },
        {
          "dataId": "boxing-01",
          "name": "Boxing Bonus",
          "exercise": "Boxing",
          "wasSuccessful": false,
          "reps": 1,
          "sets": 1,
          "weightPercentage": null,
          "timeInMin": 30,
          "oneRepMax": 0,
          "description": "Do 15 min jump rope and 15min heavybag/shadow box.",
          "isFinalSet": false
        }
      ]
    },
    {
      "name": "Endurance Workout M",
      "type": "Run & Fun",
      "id": "M",
      "isActive": null,
      "exercises": [
        {
          "dataId": "stretch-03",
          "name": "Mobility",
          "exercise": "Stretch",
          "wasSuccessful": false,
          "reps": 1,
          "sets": 1,
          "weightPercentage": null,
          "timeInMin": 2,
          "oneRepMax": null,
          "description": "Stretch, focusing on you hamstrings and ankles. Get real loose, because today you're going for a run.",
          "isFinalSet": false
        },
        {
          "name": "Run",
          "exercise": "Long Run",
          "wasSuccessful": false,
          "reps": 1,
          "sets": 1,
          "weightPercentage": null,
          "timeInMin": 30,
          "oneRepMax": null,
          "description": "Take it easy, shoot for 3 mi around 30 min, but do whatever pace FEELS good. Try for a 4/10 effort.",
          "isFinalSet": true
        },
        {
          "name": "Sports",
          "exercise": "Basketball",
          "wasSuccessful": false,
          "reps": 1,
          "sets": 1,
          "weightPercentage": null,
          "timeInMin": 30,
          "oneRepMax": null,
          "description": "Get out there and play a sport. Basketball, soccer, whatever, just go move around for at least 30 min. Requirement: Have fun!",
          "isFinalSet": true
        }
      ]
    },
    {
      "name": "Endurance Workout N",
      "type": "Easy lifting day",
      "id": "N",
      "isActive": false,
      "exercises": [
        {
          "dataId": "jog",
          "name": "Warm-up",
          "exercise": "Sprint",
          "wasSuccessful": false,
          "reps": 1,
          "sets": 1,
          "weightPercentage": null,
          "timeInMin": 3,
          "oneRepMax": 0,
          "description": "Run, fast, sprint for 3 min. Get that blood pumping.",
          "isFinalSet": false
        },
        {
          "dataId": "stretch-01",
          "name": "Mobility",
          "exercise": "Stretch",
          "wasSuccessful": false,
          "reps": 1,
          "sets": 1,
          "weightPercentage": null,
          "timeInMin": 2,
          "oneRepMax": 0,
          "description": "Stretch for 2 min, focus on hips and arms.",
          "isFinalSet": false
        },
        {
          "dataId": "squat-wu",
          "name": "Squat Warmup",
          "exercise": "Squat",
          "wasSuccessful": false,
          "reps": 5,
          "sets": 0,
          "weightPercentage": 25,
          "timeInMin": 2,
          "oneRepMax": 1,
          "description": "Just warm up your legs. Take it easy.",
          "isFinalSet": false
        },
        {
          "dataId": "squat-wu",
          "name": "Squat Warmup",
          "exercise": "Squat",
          "wasSuccessful": false,
          "reps": 3,
          "sets": 0,
          "weightPercentage": 30,
          "timeInMin": 2,
          "oneRepMax": 1,
          "description": "A little harder, but less reps.",
          "isFinalSet": false
        },
        {
          "dataId": "squat-wu",
          "name": "Squat Warmup",
          "exercise": "Squat",
          "wasSuccessful": false,
          "reps": 2,
          "sets": 0,
          "weightPercentage": 50,
          "timeInMin": 2,
          "oneRepMax": 1,
          "description": "Get ready for the real deal.",
          "isFinalSet": false
        },
        {
          "dataId": "squat-01",
          "name": "Squat",
          "exercise": "Squat",
          "wasSuccessful": false,
          "reps": 12,
          "sets": 1,
          "weightPercentage": 60,
          "timeInMin": 2,
          "oneRepMax": 1,
          "description": "Our first working set.",
          "isFinalSet": false
        },
        {
          "dataId": "squat-01",
          "name": "Squat",
          "exercise": "Squat",
          "wasSuccessful": false,
          "reps": 12,
          "sets": 2,
          "weightPercentage": 60,
          "timeInMin": 2,
          "oneRepMax": 1,
          "description": "Second set, you should start to feel it.",
          "isFinalSet": false
        },
        {
          "dataId": "squat-01",
          "name": "Squat",
          "exercise": "Squat",
          "wasSuccessful": false,
          "reps": 12,
          "sets": 3,
          "weightPercentage": 60,
          "timeInMin": 2,
          "oneRepMax": 1,
          "description": "Half way, you got this.",
          "isFinalSet": false
        },
        {
          "dataId": "squat-01",
          "name": "Squat",
          "exercise": "Squat",
          "wasSuccessful": false,
          "reps": 12,
          "sets": 4,
          "weightPercentage": 60,
          "timeInMin": 2,
          "oneRepMax": 1,
          "description": "Nailed it!.",
          "isFinalSet": true
        },
        {
          "dataId": "gb-wu",
          "name": "Glute-Bridge Warmup",
          "exercise": "Glute-Bridge",
          "wasSuccessful": false,
          "reps": 5,
          "sets": 0,
          "weightPercentage": 25,
          "timeInMin": 2,
          "oneRepMax": 1,
          "description": "Just warm up your chest. Take it easy.",
          "isFinalSet": false
        },
        {
          "dataId": "gb-wu",
          "name": "Glute-Bridge Warmup",
          "exercise": "Glute-Bridge",
          "wasSuccessful": false,
          "reps": 3,
          "sets": 0,
          "weightPercentage": 30,
          "timeInMin": 2,
          "oneRepMax": 1,
          "description": "A little harder, but less reps.",
          "isFinalSet": false
        },
        {
          "dataId": "gb-wu",
          "name": "Glute-Bridge Warmup",
          "exercise": "Glute-Bridge",
          "wasSuccessful": false,
          "reps": 2,
          "sets": 0,
          "weightPercentage": 50,
          "timeInMin": 2,
          "oneRepMax": 1,
          "description": "Get ready for the real deal.",
          "isFinalSet": false
        },
        {
          "dataId": "gb-01",
          "name": "Glute-Bridge",
          "exercise": "Glute-Bridge",
          "wasSuccessful": false,
          "reps": 12,
          "sets": 1,
          "weightPercentage": 60,
          "timeInMin": 2,
          "oneRepMax": 1,
          "description": "Our first working set.",
          "isFinalSet": false
        },
        {
          "dataId": "gb-01",
          "name": "Glute-Bridge",
          "exercise": "Glute-Bridge",
          "wasSuccessful": false,
          "reps": 12,
          "sets": 2,
          "weightPercentage": 60,
          "timeInMin": 2,
          "oneRepMax": 1,
          "description": "Second set, you should start to feel it.",
          "isFinalSet": false
        },
        {
          "dataId": "gb-01",
          "name": "Glute-Bridge",
          "exercise": "Glute-Bridge",
          "wasSuccessful": false,
          "reps": 12,
          "sets": 3,
          "weightPercentage": 60,
          "timeInMin": 2,
          "oneRepMax": 1,
          "description": "Half way, you got this.",
          "isFinalSet": false
        },
        {
          "dataId": "gb-01",
          "name": "Glute-Bridge",
          "exercise": "Glute-Bridge",
          "wasSuccessful": false,
          "reps": 12,
          "sets": 4,
          "weightPercentage": 60,
          "timeInMin": 2,
          "oneRepMax": 1,
          "description": "Nailed it!.",
          "isFinalSet": true
        },
        {
          "dataId": "calf-wu",
          "name": "Calf-Raises Warmup",
          "exercise": "Calf-Raises",
          "wasSuccessful": false,
          "reps": 5,
          "sets": 0,
          "weightPercentage": 25,
          "timeInMin": 2,
          "oneRepMax": 1,
          "description": "Focus on form. Take it easy.",
          "isFinalSet": false
        },
        {
          "dataId": "calf-wu",
          "name": "Calf-Raises Warmup",
          "exercise": "Calf-Raises",
          "wasSuccessful": false,
          "reps": 3,
          "sets": 0,
          "weightPercentage": 30,
          "timeInMin": 2,
          "oneRepMax": 1,
          "description": "A little harder, but less reps.",
          "isFinalSet": false
        },
        {
          "dataId": "calf-wu",
          "name": "Calf-Raises Warmup",
          "exercise": "Calf-Raises",
          "wasSuccessful": false,
          "reps": 2,
          "sets": 0,
          "weightPercentage": 50,
          "timeInMin": 2,
          "oneRepMax": 1,
          "description": "Get ready for the real deal.",
          "isFinalSet": false
        },
        {
          "dataId": "calf-01",
          "name": "Calf-Raises",
          "exercise": "Calf-Raises",
          "wasSuccessful": false,
          "reps": 12,
          "sets": 1,
          "weightPercentage": 60,
          "timeInMin": 2,
          "oneRepMax": 1,
          "description": "First working set.",
          "isFinalSet": false
        },
        {
          "dataId": "calf-01",
          "name": "Calf-Raises",
          "exercise": "Calf-Raises",
          "wasSuccessful": false,
          "reps": 12,
          "sets": 1,
          "weightPercentage": 60,
          "timeInMin": 2,
          "oneRepMax": 1,
          "description": "Nailed it!",
          "isFinalSet": true
        },
        {
          "dataId": "uppercut-wu",
          "name": "Uppercuts Warmup",
          "exercise": "Uppercuts",
          "wasSuccessful": false,
          "reps": 5,
          "sets": 0,
          "weightPercentage": 25,
          "timeInMin": 2,
          "oneRepMax": 1,
          "description": "Focus on form. Take it easy.",
          "isFinalSet": false
        },
        {
          "dataId": "uppercut-wu",
          "name": "Uppercuts Warmup",
          "exercise": "Uppercuts",
          "wasSuccessful": false,
          "reps": 3,
          "sets": 0,
          "weightPercentage": 30,
          "timeInMin": 2,
          "oneRepMax": 1,
          "description": "A little harder, but less reps.",
          "isFinalSet": false
        },
        {
          "dataId": "uppercut-01",
          "name": "Uppercuts",
          "exercise": "Uppercuts",
          "wasSuccessful": false,
          "reps": 20,
          "sets": 1,
          "weightPercentage": 70,
          "timeInMin": 2,
          "oneRepMax": 1,
          "description": "Keep your elbows tucked, concentrate.",
          "isFinalSet": false
        },
        {
          "dataId": "uppercut-01",
          "name": "Uppercuts",
          "exercise": "Uppercuts",
          "wasSuccessful": false,
          "reps": 20,
          "sets": 2,
          "weightPercentage": 70,
          "timeInMin": 2,
          "oneRepMax": 1,
          "description": "Mind muscle connection...reps don't matter if you're not using proper form.",
          "isFinalSet": true
        },
        {
          "dataId": "bike-02",
          "name": "Optional Biking",
          "exercise": "Bike",
          "wasSuccessful": false,
          "reps": 1,
          "sets": 1,
          "weightPercentage": null,
          "timeInMin": 15,
          "oneRepMax": 0,
          "description": "Hop on a (stationary) bike and peddle it out for 15 min, go pretty hard. No bike? No problem. Grab a skateboard, roller blades, or just hit a trail.",
          "isFinalSet": false
        },
        {
          "dataId": "yoga-03",
          "name": "Yoga",
          "exercise": "Yoga",
          "wasSuccessful": false,
          "reps": 1,
          "sets": 1,
          "weightPercentage": null,
          "timeInMin": 15,
          "oneRepMax": 0,
          "description": "Just relax. Do at least 20 min of Yoga and concentrate on your breathing. Checkout Boho Beautiful  or Yoga with Adrian on YouTube if you need some inspiration.",
          "isFinalSet": false
        }
      ]
    },
    {
      "name": "Endurance Workout O",
      "type": "Recovery Cardio",
      "id": "O",
      "isActive": null,
      "exercises": [
        {
          "dataId": "stretch-02",
          "name": "Mobility",
          "exercise": "Stretch",
          "wasSuccessful": false,
          "reps": 1,
          "sets": 1,
          "weightPercentage": null,
          "timeInMin": 2,
          "oneRepMax": null,
          "description": "Shoulders and neck should get your attention  today. Make yourself feel loose and  calm.",
          "isFinalSet": false
        },
        {
          "dataId": "jog",
          "name": "Run",
          "exercise": "Recovery Run",
          "wasSuccessful": false,
          "reps": 1,
          "sets": 1,
          "weightPercentage": null,
          "timeInMin": 25,
          "oneRepMax": null,
          "description": "Go at your own pace for 25 min. But try to keep that pace the whole time. Start out easier than you think!",
          "isFinalSet": true
        },
        {
          "dataId": "sports-01",
          "name": "Sports",
          "exercise": "Basketball",
          "wasSuccessful": false,
          "reps": 1,
          "sets": 1,
          "weightPercentage": null,
          "timeInMin": 30,
          "oneRepMax": null,
          "description": "Get out there and play a sport. Basketball, soccer, whatever, just go move around for at least 30 min. Requirement: Think about your form and technique...how can you get better?",
          "isFinalSet": true
        }
      ]
    },
    {
      "name": "Endurance Workout P",
      "type": "Heavy Day",
      "id": "p",
      "isActive": null,
      "exercises": [
        {
          "dataId": "stretch-03",
          "name": "Mobility",
          "exercise": "Stretch",
          "wasSuccessful": false,
          "reps": 1,
          "sets": 1,
          "weightPercentage": null,
          "timeInMin": 2,
          "oneRepMax": null,
          "description": "Loosen your chest, back, and hamstrings. Maybe go grab a foam roller.",
          "isFinalSet": false
        },
         {
          "dataId": "squat-wu",
          "name": "Squat Warmup",
          "exercise": "Squat",
          "wasSuccessful": false,
          "reps": 5,
          "sets": 0,
          "weightPercentage": 25,
          "timeInMin": 2,
          "oneRepMax": 1,
          "description": "Just warm up your legs. Take it easy.",
          "isFinalSet": false
        },
        {
          "dataId": "squat-wu",
          "name": "Squat Warmup",
          "exercise": "Squat",
          "wasSuccessful": false,
          "reps": 3,
          "sets": 0,
          "weightPercentage": 30,
          "timeInMin": 2,
          "oneRepMax": 1,
          "description": "A little harder, but less reps.",
          "isFinalSet": false
        },
        {
          "dataId": "squat-wu",
          "name": "Squat Warmup",
          "exercise": "Squat",
          "wasSuccessful": false,
          "reps": 2,
          "sets": 0,
          "weightPercentage": 50,
          "timeInMin": 2,
          "oneRepMax": 1,
          "description": "Get ready for the real deal.",
          "isFinalSet": false
        },
        {
          "dataId": "squat-01",
          "name": "Squat",
          "exercise": "Squat",
          "wasSuccessful": false,
          "reps": 5,
          "sets": 1,
          "weightPercentage": 85,
          "timeInMin": 2,
          "oneRepMax": 1,
          "description": "First time going heavy. Keep your form.",
          "isFinalSet": false
        },
        {
          "dataId": "squat-01",
          "name": "Squat",
          "exercise": "Squat",
          "wasSuccessful": false,
          "reps": 5,
          "sets": 2,
          "weightPercentage": 85,
          "timeInMin": 2,
          "oneRepMax": 1,
          "description": "Last working set. Push it.",
          "isFinalSet": true
        },
        {
          "dataId": "bench-01",
          "name": "Bench",
          "exercise": "Bench",
          "wasSuccessful": false,
          "reps": 5,
          "sets": 0,
          "weightPercentage": 25,
          "timeInMin": 2,
          "oneRepMax": 1,
          "description": "Just warm up your chest. Take it easy.",
          "isFinalSet": false
        },
        {
          "dataId": "bench-01",
          "name": "Bench",
          "exercise": "Bench",
          "wasSuccessful": false,
          "reps": 3,
          "sets": 0,
          "weightPercentage": 30,
          "timeInMin": 2,
          "oneRepMax": 1,
          "description": "A little harder, but less reps.",
          "isFinalSet": false
        },
        {
          "dataId": "bench-01",
          "name": "Bench",
          "exercise": "Bench",
          "wasSuccessful": false,
          "reps": 2,
          "sets": 0,
          "weightPercentage": 50,
          "timeInMin": 2,
          "oneRepMax": 1,
          "description": "Get ready for the real deal.",
          "isFinalSet": false
        },
        {
          "dataId": "bench-01",
          "name": "Bench",
          "exercise": "Bench",
          "wasSuccessful": false,
          "reps": 5,
          "sets": 1,
          "weightPercentage": 85,
          "timeInMin": 2,
          "oneRepMax": 1,
          "description": "Just breathe...",
          "isFinalSet": false
        },
        {
          "dataId": "bench-01",
          "name": "Bench",
          "exercise": "Bench",
          "wasSuccessful": false,
          "reps": 5,
          "sets": 2,
          "weightPercentage": 85,
          "timeInMin": 2,
          "oneRepMax": 1,
          "description": "Focus........",
          "isFinalSet": true
        },
        {
          "dataId": "gb-wu",
          "name": "Glute-Bridge Warmup",
          "exercise": "Glute-Bridge",
          "wasSuccessful": false,
          "reps": 5,
          "sets": 0,
          "weightPercentage": 25,
          "timeInMin": 2,
          "oneRepMax": 1,
          "description": "Just warm up your chest. Take it easy.",
          "isFinalSet": false
        },
        {
          "dataId": "gb-wu",
          "name": "Glute-Bridge Warmup",
          "exercise": "Glute-Bridge",
          "wasSuccessful": false,
          "reps": 3,
          "sets": 0,
          "weightPercentage": 30,
          "timeInMin": 2,
          "oneRepMax": 1,
          "description": "A little harder, but less reps.",
          "isFinalSet": false
        },
        {
          "dataId": "gb-wu",
          "name": "Glute-Bridge Warmup",
          "exercise": "Glute-Bridge",
          "wasSuccessful": false,
          "reps": 2,
          "sets": 0,
          "weightPercentage": 50,
          "timeInMin": 2,
          "oneRepMax": 1,
          "description": "Get ready for the real deal.",
          "isFinalSet": false
        },
        {
          "dataId": "gb-01",
          "name": "Glute-Bridge",
          "exercise": "Glute-Bridge",
          "wasSuccessful": false,
          "reps": 5,
          "sets": 1,
          "weightPercentage": 85,
          "timeInMin": 2,
          "oneRepMax": 1,
          "description": "Just breathe...",
          "isFinalSet": false
        },
        {
          "dataId": "gb-01",
          "name": "Glute-Bridge",
          "exercise": "Glute-Bridge",
          "wasSuccessful": false,
          "reps": 5,
          "sets": 2,
          "weightPercentage": 85,
          "timeInMin": 2,
          "oneRepMax": 1,
          "description": "Focus........",
          "isFinalSet": true
        },
        {
          "dataId": "deadlift-wu",
          "name": "Deadlift Warmup",
          "exercise": "Deadlift",
          "wasSuccessful": false,
          "reps": 5,
          "sets": 0,
          "weightPercentage": 25,
          "timeInMin": 2,
          "oneRepMax": 1,
          "description": "Focus on form. Take it easy.",
          "isFinalSet": false
        },
        {
          "dataId": "deadlift-wu",
          "name": "Deadlift Warmup",
          "exercise": "Deadlift",
          "wasSuccessful": false,
          "reps": 3,
          "sets": 0,
          "weightPercentage": 30,
          "timeInMin": 2,
          "oneRepMax": 1,
          "description": "A little harder, but less reps.",
          "isFinalSet": false
        },
        {
          "dataId": "deadlift-wu",
          "name": "Deadlift Warmup",
          "exercise": "Deadlift",
          "wasSuccessful": false,
          "reps": 2,
          "sets": 0,
          "weightPercentage": 50,
          "timeInMin": 2,
          "oneRepMax": 1,
          "description": "Get ready for the real deal.",
          "isFinalSet": false
        },
        {
          "dataId": "deadlift-01",
          "name": "Deadlift",
          "exercise": "Deadlift",
          "wasSuccessful": false,
          "reps": 5,
          "sets": 1,
          "weightPercentage": 85,
          "timeInMin": 2,
          "oneRepMax": 1,
          "description": "Watch your form, pay attention to your lower-back.",
          "isFinalSet": false
        },
        {
          "dataId": "deadlift-01",
          "name": "Deadlift",
          "exercise": "Deadlift",
          "wasSuccessful": false,
          "reps": 5,
          "sets": 2,
          "weightPercentage": 85,
          "timeInMin": 2,
          "oneRepMax": 1,
          "description": "Don't swing the weight, control it.",
          "isFinalSet": true
        },
        {
          "dataId": "bike-03",
          "name": "Biking Bonus",
          "exercise": "Bike",
          "wasSuccessful": false,
          "reps": 1,
          "sets": 1,
          "weightPercentage": null,
          "timeInMin": 30,
          "oneRepMax": 0,
          "description": "Hit the bike again for at least 30 min. No bike? Try some boxing footwork.",
          "isFinalSet": false
        }
      ]
    },
    {
      "name": "Rest Day",
      "type": "Rest Day",
      "id": "R3",
      "isActive": null,
      "exercises": [
        {
          "name": "Whatever",
          "exercise": "Whatever",
          "wasSuccessful": false,
          "reps": 1,
          "sets": 1,
          "weightPercentage": null,
          "timeInMin": 30,
          "oneRepMax": null,
          "description": "Do whatever you want...or do nothing at all. Today's a rest day.",
          "isFinalSet": false
        }
      ]
    },
    {
      "name": "Rest Day",
      "type": "Rest Day",
      "id": "R4",
      "isActive": null,
      "exercises": [
        {
          "name": "Enjoy",
          "exercise": "Whatever",
          "wasSuccessful": false,
          "reps": 1,
          "sets": 1,
          "weightPercentage": null,
          "timeInMin": 30,
          "oneRepMax": null,
          "description": "Get outside, go for a hike. Rollerblade with friends...just enjoy.",
          "isFinalSet": false
        }
      ]
    },
    {
      "name": "Recover Week",
      "type": "Recover Week",
      "id": "X1",
      "isActive": null,
      "exercises": [
        {
          "name": "Enjoy",
          "exercise": "Whatever",
          "wasSuccessful": false,
          "reps": 1,
          "sets": 1,
          "weightPercentage": null,
          "timeInMin": 30,
          "oneRepMax": null,
          "description": "Time for a break. Do anything you want for a week that's not lifting. Come back when you're recovered and start the next program, the Hypertrophy program. Go to your profile, adjust your ORM's if needed and then update your program and  hit save.",
          "isFinalSet": false
        }
      ]
    }
  ]
}