{
  "articles": [
    {
      "title": "Exercises",
      "id": "exercises-01",
      "author": "Brian Dausman",
      "time": 10,
      "content": "Content \nGoes\n\nHere.",
      "tags": ["Running", "Shoes", "Knots"],
      "shortDesc": "Learn to tie the runners knot to prevent slippage while you're running. The runners knot will keep your shoes in place and prevent blisters.",
      "coverImg": "https://images.pexels.com/photos/2729899/pexels-photo-2729899.jpeg?auto=compress&cs=tinysrgb&dpr=2&h=150&w=450",
      "published": "2012-04-23T18:25:43.511Z",
      "video": null
    },
    {
      "title": "Runners Knot",
      "id": "running-02",
      "author": "Brian Dausman",
      "time": 10,
      "content": "Content \nGoes\n\nHere.",
      "tags": ["Running", "Shoes", "Knots"],
      "shortDesc": "Content...",
      "coverImg": "https://images.pexels.com/photos/2729899/pexels-photo-2729899.jpeg?auto=compress&cs=tinysrgb&dpr=2&h=150&w=450"
    },
    {
      "title": "Runners Knot",
      "id": "running-03",
      "author": "Brian Dausman",
      "time": 10,
      "content": "Content \nGoes\n\nHere.",
      "tags": ["Running", "Shoes", "Knots"],
      "shortDesc": "Learn to tie the runners knot to prevent slippage while you're running. The runners knot will keep your shoes in place and prevent blisters.",
      "coverImg": "https://images.pexels.com/photos/2729899/pexels-photo-2729899.jpeg?auto=compress&cs=tinysrgb&dpr=2&h=150&w=450"
    },
    {
      "title": "Runners Knot",
      "id": "running-04",
      "author": "Brian Dausman",
      "time": 10,
      "content": "Content \nGoes\n\nHere.",
      "tags": ["Running", "Shoes", "Knots"],
      "shortDesc": "Content...",
      "coverImg": "https://images.pexels.com/photos/2729899/pexels-photo-2729899.jpeg?auto=compress&cs=tinysrgb&dpr=2&h=150&w=450"
    },
    {
      "title": "Runners Knot",
      "id": "running-05",
      "author": "Brian Dausman",
      "time": 10,
      "content": "Content \nGoes\n\nHere.",
      "tags": ["Running", "Shoes", "Knots"],
      "shortDesc": "Content...",
      "coverImg": "https://images.pexels.com/photos/2729899/pexels-photo-2729899.jpeg?auto=compress&cs=tinysrgb&dpr=2&h=150&w=450"
    }
  ]
}